{
    "data": [
        {
            "id": "720968c2-5154-4361-8a78-c7ccb033a2de",
            "diet": "Carnívoro",
            "name": "Utahraptor",
            "size": "6 metros",
            "image": "public/Dinos Image/utahraptor.webp",
            "period": "Cretácico",
            "region": "Norteamérica",
            "category": "Terópodo",
            "description": "Uno de los mayores dromeosáuridos conocidos.",
            "createdAt": "2026-02-20T17:48:18.649Z",
            "updatedAt": "2026-02-23T11:05:35.367Z"
        },
        {
            "id": "f832e0dc-caab-4df1-ad82-20c31b95450b",
            "diet": "Herbívoro",
            "name": "Psittacosaurus",
            "size": "2 metros",
            "image": "public/Dinos Image/noImage.png",
            "period": "Cretácico",
            "region": "Asia",
            "category": "Ceratopsia",
            "description": "Ceratopsio primitivo de pequeño tamaño.",
            "createdAt": "2026-02-20T17:48:18.560Z",
            "updatedAt": "2026-02-20T17:48:18.560Z"
        },
        {
            "id": "33d6b86c-4a58-4355-8437-b8826ab35c6f",
            "diet": "Herbívoro",
            "name": "Sauropelta",
            "size": "6 metros",
            "image": "public/Dinos Image/noImage.png",
            "period": "Cretácico",
            "region": "Norteamérica",
            "category": "Ornitísquio",
            "description": "Dinosaurio blindado con largas púas laterales.",
            "createdAt": "2026-02-20T17:48:18.468Z",
            "updatedAt": "2026-02-20T17:48:18.468Z"
        },
        {
            "id": "84b84dbd-60d4-4479-abc8-44b3f339a45a",
            "diet": "Herbívoro",
            "name": "Nigersaurus",
            "size": "9 metros",
            "image": "public/Dinos Image/noImage.png",
            "period": "Cretácico",
            "region": "África",
            "category": "Saurópodo",
            "description": "Saurópodo con cientos de dientes especializados.",
            "createdAt": "2026-02-20T17:48:18.376Z",
            "updatedAt": "2026-02-20T17:48:18.376Z"
        },
        {
            "id": "25468d2a-0a88-4c17-b794-2a7a60070309",
            "diet": "Carnívoro",
            "name": "Acrocanthosaurus",
            "size": "11 metros",
            "image": "public/Dinos Image/noImage.png",
            "period": "Cretácico",
            "region": "Norteamérica",
            "category": "Terópodo",
            "description": "Tenía espinas neurales altas en la espalda.",
            "createdAt": "2026-02-20T17:48:18.294Z",
            "updatedAt": "2026-02-20T17:48:18.294Z"
        },
        {
            "id": "b7498dbb-84e4-4178-972e-dfe711fb181a",
            "diet": "Carnívoro",
            "name": "Tarbosaurus",
            "size": "10 metros",
            "image": "public/Dinos Image/noImage.png",
            "period": "Cretácico",
            "region": "Asia",
            "category": "Terópodo",
            "description": "Pariente asiático cercano del Tyrannosaurus.",
            "createdAt": "2026-02-20T17:48:18.197Z",
            "updatedAt": "2026-02-20T17:48:18.197Z"
        },
        {
            "id": "3587dd25-58b2-44c2-bd4f-15bfa0efdeb4",
            "diet": "Herbívoro",
            "name": "Hypsilophodon",
            "size": "2 metros",
            "image": "public/Dinos Image/noImage.png",
            "period": "Cretácico",
            "region": "Europa",
            "category": "Ornitópodo",
            "description": "Herbívoro ligero y rápido.",
            "createdAt": "2026-02-20T17:48:18.093Z",
            "updatedAt": "2026-02-20T17:48:18.093Z"
        },
        {
            "id": "33f0ac4f-fc79-416d-ac12-c383538c41bb",
            "diet": "Herbívoro",
            "name": "Dryosaurus",
            "size": "4 metros",
            "image": "public/Dinos Image/noImage.png",
            "period": "Jurásico",
            "region": "África",
            "category": "Ornitópodo",
            "description": "Pequeño herbívoro bípedo y veloz.",
            "createdAt": "2026-02-20T17:48:18.004Z",
            "updatedAt": "2026-02-20T17:48:18.004Z"
        },
        {
            "id": "984559b2-7204-4dd9-bb8c-36368c7ce2de",
            "diet": "Carnívoro",
            "name": "Ceratosaurus",
            "size": "6 metros",
            "image": "public/Dinos Image/noImage.png",
            "period": "Jurásico",
            "region": "Norteamérica",
            "category": "Terópodo",
            "description": "Tenía un cuerno prominente en el hocico.",
            "createdAt": "2026-02-20T17:48:17.909Z",
            "updatedAt": "2026-02-20T17:48:17.909Z"
        },
        {
            "id": "93c15c8a-f6a7-49f2-aaf4-491bbff598bc",
            "diet": "Carnívoro",
            "name": "Compsognathus",
            "size": "1 metro",
            "image": "public/Dinos Image/noImage.png",
            "period": "Jurásico",
            "region": "Europa",
            "category": "Terópodo",
            "description": "Pequeño dinosaurio carnívoro muy ágil.",
            "createdAt": "2026-02-20T17:48:17.809Z",
            "updatedAt": "2026-02-20T17:48:17.809Z"
        },
        {
            "id": "b4bda368-2047-45a3-a4d0-55e622e05cc3",
            "diet": "Carnívoro",
            "name": "Herrerasaurus",
            "size": "6 metros",
            "image": "public/Dinos Image/noImage.png",
            "period": "Triásico",
            "region": "Sudamérica",
            "category": "Terópodo",
            "description": "Depredador primitivo del Triásico.",
            "createdAt": "2026-02-20T17:48:17.713Z",
            "updatedAt": "2026-02-20T17:48:17.713Z"
        },
        {
            "id": "1d7aaae3-b006-41e9-8fff-1c9431b2235a",
            "diet": "Carnívoro",
            "name": "Eoraptor",
            "size": "1 metro",
            "image": "public/Dinos Image/noImage.png",
            "period": "Triásico",
            "region": "Sudamérica",
            "category": "Terópodo",
            "description": "Uno de los dinosaurios más antiguos conocidos.",
            "createdAt": "2026-02-20T17:48:17.616Z",
            "updatedAt": "2026-02-20T17:48:17.616Z"
        },
        {
            "id": "f5670918-d8c8-4b90-94df-4357536f2f1a",
            "diet": "Herbívoro",
            "name": "Saltasaurus",
            "size": "12 metros",
            "image": "public/Dinos Image/noImage.png",
            "period": "Cretácico",
            "region": "Sudamérica",
            "category": "Saurópodo",
            "description": "Saurópodo relativamente pequeño con placas óseas.",
            "createdAt": "2026-02-20T17:48:17.525Z",
            "updatedAt": "2026-02-20T17:48:17.525Z"
        },
        {
            "id": "542276b7-3817-48dc-8697-f9ddf8d8eb31",
            "diet": "Herbívoro",
            "name": "Amargasaurus",
            "size": "10 metros",
            "image": "public/Dinos Image/noImage.png",
            "period": "Cretácico",
            "region": "Sudamérica",
            "category": "Saurópodo",
            "description": "Saurópodo con largas espinas en el cuello.",
            "createdAt": "2026-02-20T17:48:17.435Z",
            "updatedAt": "2026-02-20T17:48:17.435Z"
        },
        {
            "id": "c814e73f-4f70-49dd-8767-2f68466507b6",
            "diet": "Herbívoro",
            "name": "Styracosaurus",
            "size": "5.5 metros",
            "image": "public/Dinos Image/noImage.png",
            "period": "Cretácico",
            "region": "Norteamérica",
            "category": "Ceratopsia",
            "description": "Tenía múltiples púas largas en su volante.",
            "createdAt": "2026-02-20T17:48:17.340Z",
            "updatedAt": "2026-02-20T17:48:17.340Z"
        },
        {
            "id": "cc5dd990-c759-4541-9934-5b10b0782a50",
            "diet": "Herbívoro",
            "name": "Torosaurus",
            "size": "9 metros",
            "image": "public/Dinos Image/noImage.png",
            "period": "Cretácico",
            "region": "Norteamérica",
            "category": "Ceratopsia",
            "description": "Ceratopsio con un enorme volante óseo.",
            "createdAt": "2026-02-20T17:48:17.249Z",
            "updatedAt": "2026-02-20T17:48:17.249Z"
        },
        {
            "id": "45697f94-5cb6-4322-8610-755666244ca1",
            "diet": "Herbívoro",
            "name": "Shantungosaurus",
            "size": "15 metros",
            "image": "https://example.com/shantungosaurus.jpg",
            "period": "Cretácico",
            "region": "Asia",
            "category": "Ornitópodo",
            "description": "Uno de los mayores hadrosaurios conocidos.",
            "createdAt": "2026-02-20T17:48:17.164Z",
            "updatedAt": "2026-02-20T17:48:17.164Z"
        },
        {
            "id": "32bb3adc-1450-4ef0-9642-949370eb86cd",
            "diet": "Carnívoro",
            "name": "Rugops",
            "size": "7 metros",
            "image": "https://example.com/rugops.jpg",
            "period": "Cretácico",
            "region": "África",
            "category": "Terópodo",
            "description": "Depredador con cráneo ornamentado.",
            "createdAt": "2026-02-20T17:48:17.067Z",
            "updatedAt": "2026-02-20T17:48:17.067Z"
        },
        {
            "id": "f787e6a6-bbad-4744-b604-f2fe317b3e81",
            "diet": "Omnívoro",
            "name": "Gallimimus",
            "size": "6 metros",
            "image": "https://example.com/gallimimus.jpg",
            "period": "Cretácico",
            "region": "Asia",
            "category": "Terópodo",
            "description": "Dinosaurio veloz similar a un avestruz.",
            "createdAt": "2026-02-20T17:48:16.973Z",
            "updatedAt": "2026-02-20T17:48:16.973Z"
        },
        {
            "id": "51dc3bdb-9638-4992-abfe-5e3c1451b7b0",
            "diet": "Carnívoro",
            "name": "Mononykus",
            "size": "1 metro",
            "image": "https://example.com/mononykus.jpg",
            "period": "Cretácico",
            "region": "Asia",
            "category": "Terópodo",
            "description": "Tenía brazos muy cortos con una sola garra funcional.",
            "createdAt": "2026-02-20T17:48:16.882Z",
            "updatedAt": "2026-02-20T17:48:16.882Z"
        }
    ],
    "pagination": {
        "page": 1,
        "limit": 20,
        "total": 52,
        "totalPages": 3
    }
}